module gitlab.com/a3buka/go-kata/module4/selenium/kata

go 1.19

require (
	github.com/PuerkitoBio/goquery v1.8.1
	github.com/tebeka/selenium v0.9.9
)

require (
	github.com/andybalholm/cascadia v1.3.1 // indirect
	github.com/blang/semver v3.5.1+incompatible // indirect
	golang.org/x/net v0.7.0 // indirect
)
